fragment_program mini hlsl
{
	source MiniMap.hlsl
	entry_point minimap
	target ps_2_0
}

material MiniMap
{
	technique
	{
		pass
		{
			//cull_hardware none
			//cull_software none
			//depth_func always_pass

			fragment_program_ref mini
			{
			}
			
			vertex_program_ref Ogre/Compositor/StdQuad_Tex2a_vp
			{
			}

			texture_unit //RT
			{
                //tex_coord_set 0
				//tex_address_mode clamp
				//filtering trilinear
			}

		}
	}
}
